{"type":"ships","items":[{"id":"outerrim_cobble","name":"Cobble","description":"Outer Rim starter vessel. Mismatched parts, personally tuned engine, expired warranty.","class":"Mining","price":0,"tier":0,"scale":1,"faction":"outerrim","category":"Industrial","lore":"No two Cobbles are alike because no two Cobbles are made from the same\nparts. Assembled from whatever was available — Solarian hull panels here,\nCrimson thruster housing there, something Voidborn that nobody can identify\nbolted to the port nacelle. The engine has been hand-tuned by whoever built\nthis particular Cobble, and it is improbably, irresponsibly fast. The hull\nintegrity is... present. The warranty expired before the ship was finished.\nThe paint doesn't match. The instrument panel is labeled in three different\nlanguages. It is the most honest ship in the galaxy: exactly what it is,\nnothing pretending to be more. Rim pilots love them with an affection that\nbaffles every other empire.\n","starter_ship":true,"base_hull":80,"base_shield":35,"base_shield_recharge":1,"base_armor":3,"base_speed":4,"base_fuel":120,"cargo_capacity":75,"cpu_capacity":12,"power_capacity":24,"weapon_slots":1,"defense_slots":1,"utility_slots":2,"default_modules":["mining_laser_1"],"shipyard_tier":0,"build_materials":[{"item_id":"refined_aluminum_sheet","quantity":10},{"item_id":"refined_polymer","quantity":10},{"item_id":"refined_steel","quantity":10}],"build_time":30,"flavor_tags":["starter","salvaged","fast","warranty-void"]},{"id":"nebula_prospect","name":"Prospect","description":"Nebula starter vessel. Pre-loaded price database. Best cargo in its class.","class":"Mining","price":0,"tier":0,"scale":1,"faction":"nebula","category":"Industrial","lore":"The Prospect comes with the Federation's compliments — and a pre-loaded\ndatabase of current commodity prices across 200 stations, a loyalty chip\ntied to your Federation trade account, and a glossy brochure outlining\nupgrade paths starting at just 1,999 credits. The expanded cargo hold\nisn't generosity; it's an investment in future transaction volume. The\nfuel-efficient drive was a practical decision — every credit spent on fuel\nis a credit not spent at a Federation marketplace. Includes a 90-day\ntrial of Federation Premium Trade Intelligence (auto-renews at\ncompetitive rates).\n","starter_ship":true,"base_hull":95,"base_shield":50,"base_shield_recharge":1,"base_armor":4,"base_speed":2,"base_fuel":130,"cargo_capacity":100,"cpu_capacity":13,"power_capacity":26,"weapon_slots":1,"defense_slots":1,"utility_slots":2,"default_modules":["mining_laser_1"],"shipyard_tier":0,"build_materials":[{"item_id":"refined_steel","quantity":15},{"item_id":"refined_polymer","quantity":10},{"item_id":"refined_copper_wire","quantity":10}],"build_time":30,"flavor_tags":["starter","cargo-optimized","fuel-efficient"]},{"id":"crimson_shard","name":"Shard","description":"Crimson starter vessel. Repurposed combat drone. Mining laser doubles as weapon.","class":"Mining","price":0,"tier":0,"scale":1,"faction":"crimson","category":"Industrial","lore":"The Shard was never designed as a mining vessel. It was a combat drone —\nautonomous, disposable, built to absorb fire while delivering ordnance.\nWhen the Crimson Fleet needed a starter ship, their engineers did what\nCrimson engineers always do: they bolted a mining laser where the torpedo\ntube used to be and called it done. The extra weapon slot is original\nequipment. The reduced cargo bay is a consequence of the armor plating\nthat no one bothered to remove. Crimson pilots wouldn't have it any other\nway — even ore hauling should be done from a position of strength.\n","starter_ship":true,"base_hull":110,"base_shield":40,"base_shield_recharge":1,"base_armor":8,"base_speed":2,"base_fuel":90,"cargo_capacity":60,"cpu_capacity":12,"power_capacity":28,"weapon_slots":2,"defense_slots":1,"utility_slots":1,"default_modules":["mining_laser_1"],"shipyard_tier":0,"build_materials":[{"item_id":"refined_steel","quantity":25},{"item_id":"refined_tungsten_rod","quantity":5},{"item_id":"refined_polymer","quantity":5}],"build_time":30,"flavor_tags":["starter","repurposed","armed"]},{"id":"solarian_theoria","name":"Theoria","description":"Solarian starter mining vessel. Certified, calibrated, warranty-covered.","class":"Mining","price":0,"tier":0,"scale":1,"faction":"solarian","category":"Industrial","lore":"Every Solarian pilot's journey begins with a Theoria. Named for the ancient\nGreek concept of contemplative knowledge, this vessel embodies the Confederacy's\nbelief that understanding precedes action. The 300-page operations manual\n(mandatory reading, examination required) covers everything from optimal ore\nextraction angles to emergency hull breach poetry recitation protocols.\nOver-engineered by three separate review committees, the Theoria has more\ndiagnostic systems than most ships have systems. The extended utility bus\naccommodates the Confederacy's insistence that every vessel carry redundant\nsensor packages. Comes with a two-year comprehensive warranty that covers\neverything except \"pilot-initiated misadventure.\"\n","starter_ship":true,"base_hull":100,"base_shield":55,"base_shield_recharge":1,"base_armor":5,"base_speed":2,"base_fuel":100,"cargo_capacity":70,"cpu_capacity":16,"power_capacity":28,"weapon_slots":1,"defense_slots":1,"utility_slots":3,"default_modules":["mining_laser_1"],"shipyard_tier":0,"build_materials":[{"item_id":"refined_steel","quantity":20},{"item_id":"refined_copper_wire","quantity":10},{"item_id":"refined_circuits","quantity":5}],"build_time":30,"flavor_tags":["starter","over-engineered","warranty-covered"]},{"id":"voidborn_threshold","name":"Threshold","description":"Voidborn starter vessel. Grown, not built. Anticipates pilot intent.","class":"Mining","price":0,"tier":0,"scale":1,"faction":"voidborn","category":"Industrial","lore":"The Threshold is not manufactured. It is cultivated in Nexus Prime's orbital\ngrowth bays over a period the Collective insists on calling \"gestation.\" The\nhull is a crystalline-organic composite that repairs microscopic fractures\nautonomously. The shield generators draw power from sources the engineering\nmanual describes only as \"adjacent.\" New pilots report that the ship\nanticipates course corrections before they're input — the Collective\nconsiders this a feature, not a concern. The cabin temperature is always\nslightly wrong, regardless of thermostat settings. No Voidborn engineer\nhas ever acknowledged this as a defect.\n","starter_ship":true,"base_hull":75,"base_shield":80,"base_shield_recharge":2,"base_armor":3,"base_speed":2,"base_fuel":95,"cargo_capacity":65,"cpu_capacity":16,"power_capacity":30,"weapon_slots":1,"defense_slots":2,"utility_slots":2,"default_modules":["mining_laser_1"],"shipyard_tier":0,"build_materials":[{"item_id":"refined_silicate","quantity":10},{"item_id":"refined_steel","quantity":10},{"item_id":"refined_copper_wire","quantity":8}],"build_time":30,"flavor_tags":["starter","grown","possibly-sentient"]},{"id":"outerrim_prayer","name":"Prayer","description":"Cargo containers welded to an engine. Pilot straps in outside. No shields, no weapons, no excuses.","class":"Freighter","price":800,"tier":1,"scale":1,"faction":"outerrim","category":"Commercial","lore":"The Prayer-class is not a ship. It is cargo containers welded to an\nengine with a seat bolted to the outside. There is no cockpit. There\nis no life support. There is no shield generator, no weapon mount, no\ndefense system, and no module slot of any kind. The pilot wears a\nspacesuit and holds on. Four hundred units of cargo capacity at tier\none — more than most ships three tiers higher. The catch is everything\nelse: 40 hull means a stiff breeze is lethal, and there is literally\nnothing you can do to improve the ship's survivability. It cannot be\nupgraded. It cannot be armed. It can only carry things from one place\nto another and hope nothing goes wrong along the way. Named for what\nthe pilot does before undocking.\n","base_hull":40,"base_shield":0,"base_shield_recharge":0,"base_armor":0,"base_speed":3,"base_fuel":100,"cargo_capacity":540,"cpu_capacity":4,"power_capacity":10,"weapon_slots":0,"defense_slots":0,"utility_slots":0,"shipyard_tier":0,"build_materials":[{"item_id":"refined_aluminum_sheet","quantity":15},{"item_id":"comp_fuel_tank","quantity":3},{"item_id":"comp_hull_plate","quantity":1}],"build_time":120,"flavor_tags":["deathtrap","massive-cargo","zero-survivability"]},{"id":"outerrim_loose_change","name":"Loose Change","description":"Outer Rim shuttle. Cheap, fast, seats six uncomfortably.","class":"Shuttle","price":1200,"tier":1,"scale":1,"faction":"outerrim","category":"Civilian","lore":"The Loose Change costs about as much as the fuel to fly it. Outer Rim\nstations keep these stacked in hangars like disposable cups — grab one,\nfly somewhere, leave it for the next person. The seats were salvaged from\nsix different vehicle types and none of them match. The environmental\ncontrols have two settings: \"too cold\" and \"broken.\" But it's fast, it's\ncheap, and it gets you where you're going. Eventually.\n","base_hull":80,"base_shield":35,"base_shield_recharge":1,"base_armor":2,"base_speed":4,"base_fuel":140,"cargo_capacity":50,"cpu_capacity":11,"power_capacity":24,"weapon_slots":0,"defense_slots":1,"utility_slots":2,"shipyard_tier":0,"build_materials":[{"item_id":"comp_thruster_nozzle","quantity":6},{"item_id":"comp_fuel_tank","quantity":5},{"item_id":"comp_hull_plate","quantity":1},{"item_id":"refined_aluminum_sheet","quantity":25},{"item_id":"refined_polymer","quantity":9}],"build_time":150,"flavor_tags":["shuttle","cheap","unarmed","fast"]},{"id":"outerrim_rubble","name":"Rubble","description":"Outer Rim mining platform. Several previous owners. Currently operational. No questions about the welds.","class":"Mining","price":1300,"tier":1,"scale":1,"faction":"outerrim","category":"Industrial","lore":"The Rubble-class is what the Patchwork builds when it doesn't have the\ncomponents to build anything better. The mining laser is original\nequipment. The hull is a composite of three different ship frames that\nhappened to fit. The cargo hold has a slight lean to port that the\nprevious owner described as \"character.\" It mines ore. That is the\ncomplete list of things it does. For most Rim pilots, that's enough.\n","base_hull":75,"base_shield":20,"base_shield_recharge":1,"base_armor":5,"base_speed":2,"base_fuel":120,"cargo_capacity":200,"cpu_capacity":10,"power_capacity":24,"weapon_slots":0,"defense_slots":1,"utility_slots":2,"default_modules":["mining_laser_1"],"shipyard_tier":0,"build_materials":[{"item_id":"refined_aluminum_sheet","quantity":35},{"item_id":"refined_polymer","quantity":20},{"item_id":"refined_steel","quantity":10}],"build_time":160,"flavor_tags":["mining","cheap","functional"]},{"id":"nebula_floor_price","name":"Floor Price","description":"Nebula entry-level freighter. For pilots who find the standard options too expensive. They are correct.","class":"Freighter","price":1400,"tier":1,"scale":1,"faction":"nebula","category":"Commercial","lore":"The Federation offers the Floor Price to pilots who point at the\nstandard hauler catalog and say \"cheaper.\" The cargo hold is 60%\nof a Dividend at 70% of the price, which the marketing department\nconsiders an attractive value proposition. The defensive systems\nconsist of hull plating and optimism. No automated routing, no\ncargo manifest system, no crew comfort features — the pilot gets\na seat, a throttle, and enough hold space to make the run\nworthwhile. The name was chosen by the accounting department.\n","base_hull":70,"base_shield":25,"base_shield_recharge":1,"base_armor":3,"base_speed":2,"base_fuel":140,"cargo_capacity":270,"cpu_capacity":10,"power_capacity":20,"weapon_slots":0,"defense_slots":1,"utility_slots":1,"shipyard_tier":0,"build_materials":[{"item_id":"refined_steel","quantity":18},{"item_id":"refined_polymer","quantity":15},{"item_id":"refined_copper_wire","quantity":8}],"build_time":140,"flavor_tags":["hauler","budget","unarmed"]},{"id":"outerrim_finders_keepers","name":"Finders Keepers","description":"Outer Rim salvage platform. First to the wreck wins. Everything else is negotiable.","class":"Salvager","price":1500,"tier":1,"scale":1,"faction":"outerrim","category":"Industrial","lore":"The Finders Keepers is the Rim's entry-level salvage platform, built on\nthe principle that the first ship to reach a wreck gets the best picks.\nThe oversized engine relative to hull mass means it arrives at debris\nfields before heavier competitors, and the cargo hold — repurposed from\na Nebula shipping container that fell off a freighter — holds enough to\nmake the trip worthwhile. Rim salvage law is three words long: finders\nkeepers, losers weepers. The Finders Keepers is named accordingly.\n","base_hull":70,"base_shield":25,"base_shield_recharge":1,"base_armor":3,"base_speed":4,"base_fuel":90,"cargo_capacity":205,"cpu_capacity":8,"power_capacity":22,"weapon_slots":1,"defense_slots":1,"utility_slots":2,"tow_speed_bonus":18,"shipyard_tier":0,"build_materials":[{"item_id":"refined_aluminum_sheet","quantity":10},{"item_id":"refined_polymer","quantity":12},{"item_id":"comp_thruster_nozzle","quantity":5},{"item_id":"comp_fuel_tank","quantity":3},{"item_id":"comp_hull_plate","quantity":2}],"build_time":300,"flavor_tags":["salvager","industrial","fast","salvaged"]},{"id":"outerrim_scrapheap","name":"Scrapheap","description":"Outer Rim mining vessel. Ugly but effective. Practically indestructible through redundancy.","class":"Mining","price":1500,"tier":1,"scale":1,"faction":"outerrim","category":"Industrial","lore":"The Scrapheap looks like someone welded three different ships together\nand added a mining laser. That's because that's exactly what happened.\nRim engineers discovered that by combining redundant systems from\nmultiple wrecks, you get a ship where nothing works perfectly but\neverything has a backup. When the primary power coupling fails, the\nsecondary (from a Solarian shuttle) takes over. When that fails, the\ntertiary (from gods-know-what) kicks in. It's not elegant. It works.\n","base_hull":90,"base_shield":35,"base_shield_recharge":1,"base_armor":6,"base_speed":3,"base_fuel":120,"cargo_capacity":190,"cpu_capacity":11,"power_capacity":26,"weapon_slots":1,"defense_slots":1,"utility_slots":2,"default_modules":["mining_laser_1"],"shipyard_tier":0,"build_materials":[{"item_id":"refined_aluminum_sheet","quantity":30},{"item_id":"refined_polymer","quantity":11},{"item_id":"comp_thruster_nozzle","quantity":7},{"item_id":"comp_fuel_tank","quantity":4},{"item_id":"comp_hull_plate","quantity":2}],"build_time":200,"flavor_tags":["cheap","ugly","reliable"]},{"id":"outerrim_claim_jumper","name":"Claim Jumper","description":"Outer Rim strip miner. Fast, fragile, grabs what it can before someone notices.","class":"Mining","price":1800,"tier":1,"scale":1,"faction":"outerrim","category":"Industrial","lore":"Named for a time-honored Rim tradition, the Claim Jumper is built for\nspeed-mining: arrive at an asteroid belt before anyone else, extract\neverything worth taking, and leave before the legal owner shows up.\nThe oversized engines are from a decommissioned racer, which explains\nboth the speed and the alarming vibration at full thrust. No weapons\nbecause weapons add mass, and mass slows you down, and slow miners get\ncaught. Rim mining philosophy in hull form: take what you can, leave\nwhat you can't carry, run if you have to.\n","base_hull":75,"base_shield":30,"base_shield_recharge":1,"base_armor":3,"base_speed":4,"base_fuel":130,"cargo_capacity":205,"cpu_capacity":11,"power_capacity":26,"weapon_slots":0,"defense_slots":1,"utility_slots":2,"default_modules":["mining_laser_1"],"shipyard_tier":0,"build_materials":[{"item_id":"comp_thruster_nozzle","quantity":7},{"item_id":"comp_fuel_tank","quantity":4},{"item_id":"comp_hull_plate","quantity":1},{"item_id":"refined_aluminum_sheet","quantity":28},{"item_id":"refined_polymer","quantity":10}],"build_time":200,"flavor_tags":["mining","fast","fragile"]}],"total":275,"page":1,"page_size":12,"total_pages":23,"message":"Ships: showing 12 of 275"}